; Engine configuration file.
; It's best edited using the editor UI and not directly,
; since the parameters that go here are not all obvious.
;
; Format:
;   [section] ; section goes between []
;   param=value ; assign values to parameters

config_version=4

_global_script_classes=[ {
"base": "Node2D",
"class": "Level",
"language": "GDScript",
"path": "res://levels/Level.gd"
} ]
_global_script_class_icons={
"Level": ""
}

[application]

config/name="mj4"
run/main_scene="res://Main.tscn"
config/icon="res://assets/icon.png"

[audio]

default_bus_layout="res://assets/default_bus_layout.tres"

[autoload]

Log="*res://addons/nframework/autoloads/Log.gd"
Config="*res://addons/nframework/autoloads/Config.gd"
SettingsAudio="*res://addons/nframework/autoloads/SettingsAudio.gd"
Game="*res://addons/nframework/autoloads/Framework.gd"
Utils="*res://addons/nframework/autoloads/Utils.gd"
Pause="*res://addons/nframework/autoloads/Pause.tscn"
Transition="*res://addons/nframework/autoloads/Transition.tscn"
Framework="*res://addons/nframework/autoloads/Framework.gd"

[display]

window/size/width=960
window/size/height=540

[editor_plugins]

enabled=PoolStringArray( "res://addons/godot-plugin-refresher/plugin.cfg", "res://addons/nframework/plugin.cfg" )

[importer_defaults]

texture={
"compress/bptc_ldr": 0,
"compress/hdr_mode": 0,
"compress/lossy_quality": 0.7,
"compress/mode": 0,
"compress/normal_map": 0,
"detect_3d": false,
"flags/anisotropic": false,
"flags/filter": false,
"flags/mipmaps": false,
"flags/repeat": 0,
"flags/srgb": 2,
"process/HDR_as_SRGB": false,
"process/fix_alpha_border": true,
"process/invert_color": false,
"process/premult_alpha": false,
"size_limit": 0,
"stream": false,
"svg/scale": 1.0
}

[physics]

common/enable_pause_aware_picking=true

[rendering]

quality/driver/driver_name="GLES2"
2d/snapping/use_gpu_pixel_snap=true
environment/default_environment="res://assets/default_env.tres"
