[gd_resource type="DynamicFont" load_steps=2 format=2]

[ext_resource path="res://assets/RubikMonoOneRegular-6pqq.ttf" type="DynamicFontData" id=1]

[resource]
size = 48
extra_spacing_char = 20
font_data = ExtResource( 1 )
