[gd_scene load_steps=2 format=2]

[ext_resource path="res://addons/nframework/autoloads/Transition.gd" type="Script" id=1]

[node name="Transition" type="CanvasLayer"]
script = ExtResource( 1 )

[node name="ColorRect" type="ColorRect" parent="."]
anchor_right = 1.0
anchor_bottom = 1.0
mouse_filter = 2
color = Color( 0, 0, 0, 0 )
__meta__ = {
"_edit_use_anchors_": false
}

[node name="TweenOut" type="Tween" parent="."]

[node name="TweenIn" type="Tween" parent="."]

[connection signal="tween_all_completed" from="TweenOut" to="." method="_on_TweenOut_tween_all_completed"]
[connection signal="tween_all_completed" from="TweenIn" to="." method="_on_TweenIn_tween_all_completed"]
