[gd_scene load_steps=6 format=2]

[ext_resource path="res://assets/RubikMonoOneRegular-6pqq.ttf" type="DynamicFontData" id=1]
[ext_resource path="res://screens/Intro.gd" type="Script" id=2]

[sub_resource type="StyleBoxFlat" id=1]
bg_color = Color( 0.133333, 0.12549, 0.203922, 1 )

[sub_resource type="DynamicFont" id=2]
size = 40
extra_spacing_char = 20
font_data = ExtResource( 1 )

[sub_resource type="DynamicFont" id=3]
size = 26
font_data = ExtResource( 1 )

[node name="Intro" type="Control"]
anchor_right = 1.0
anchor_bottom = 1.0
script = ExtResource( 2 )
__meta__ = {
"_edit_use_anchors_": false
}

[node name="Panel" type="Panel" parent="."]
anchor_right = 1.0
anchor_bottom = 1.0
custom_styles/panel = SubResource( 1 )
__meta__ = {
"_edit_use_anchors_": false
}

[node name="Title" type="Label" parent="."]
anchor_left = 0.5
anchor_top = 0.2
anchor_right = 0.5
anchor_bottom = 0.2
margin_left = -417.0
margin_right = 417.0
margin_bottom = 60.0
custom_fonts/font = SubResource( 2 )
text = "GEOMETRY CHEAT"
align = 1
__meta__ = {
"_edit_use_anchors_": false
}

[node name="Desc" type="Label" parent="."]
anchor_top = 0.8
anchor_right = 1.0
anchor_bottom = 0.8
margin_top = -105.0
custom_fonts/font = SubResource( 3 )
text = "a game by nyxkn

major jam 4"
align = 1
__meta__ = {
"_edit_use_anchors_": false
}
